Sección 2 Identificación de las cadenas productivas | Técnicas de análisis regional para detectar clústeres industriales
…
Entonces, como se dijo, la actividad será asignada a la cadena donde tenga la mayor carga. Lo que se logra con:

ramas_ci_final<-ramas_ci_row %>%
  group_by (rama)%>%
   filter (Carga == max (Carga, na.rm = TRUE ))

Ahora, sólo queda una actividad por cadena, como se indica en los criterios dados por Feser y Bergman (2000)

Cuenta2<- ramas_ci_final %>% 
  count(rama) %>%
  arrange(desc(n))
Cuenta2

## # A tibble: 90 × 2
## # Groups:   rama [90]
##    rama      n
##    <chr> <int>
##  1 2111      1
##  2 2361      1
##  3 2362      1
##  4 2371      1
##  5 2372      1
##  6 2373      1
##  7 2379      1
##  8 2381      1
##  9 2389      1
## 10 3121      1
## # … with 80 more rows
…
